{
    "key": "ui_options_page_65e0e6ba9cc34",
    "title": "Admin Settings",
    "active": true,
    "menu_order": 0,
    "page_title": "Admin Settings",
    "menu_slug": "admin-settings",
    "parent_slug": "site-settings",
    "advanced_configuration": 1,
    "icon_url": "",
    "menu_title": "",
    "position": "",
    "redirect": false,
    "description": "",
    "update_button": "Update",
    "updated_message": "Options Updated",
    "capability": "edit_posts",
    "data_storage": "options",
    "post_id": "",
    "autoload": 0,
    "_parent": 21,
    "modified": 1709237958
}
